%YAML 1.1
%TAG !u! tag:unity3d.com,2011:
--- !u!1045 &1
EditorBuildSettings:
  m_ObjectHideFlags: 0
  serializedVersion: 2
  m_Scenes:
  - enabled: 1
    path: Assets/Scenes/GameLauncherScene.unity
    guid: 8e182e56226650e4284e20990c3e730b
  - enabled: 1
    path: Assets/Scenes/GameScene.unity
    guid: e1066f249a1628c4aa1b209bc43ce4f3
  m_configObjects: {}
